timestamp,bin_id,bin_weight,bin_level
15/03/2019 11:03:09,b001,"23,1",98
16/03/2019 11:03:09,b001,"8,4",70
17/03/2019 11:03:09,b001,"2,4",79
18/03/2019 11:03:09,b001,"32,5",2
19/03/2019 11:03:09,b001,"38,8",71
20/03/2019 11:03:09,b001,"2,7",8
21/03/2019 11:03:09,b001,"17,4",65
22/03/2019 11:03:09,b001,12,10
23/03/2019 11:03:09,b001,"24,8",24
24/03/2019 11:03:09,b001,1,92
25/03/2019 11:03:09,b001,"15,5",90
26/03/2019 11:03:09,b001,50,61
27/03/2019 11:03:09,b001,"33,8",27
28/03/2019 11:03:09,b001,"8,3",84
29/03/2019 11:03:09,b001,"43,2",23
30/03/2019 11:03:09,b001,"36,3",24
15/03/2019 15:10:30,b002,"3,7",97
16/03/2019 15:10:30,b002,38,91
17/03/2019 15:10:30,b002,"27,2",79
18/03/2019 15:10:30,b002,"3,9",12
19/03/2019 15:10:30,b002,"13,9",76
20/03/2019 15:10:30,b002,"8,4",55
21/03/2019 15:10:30,b002,"32,2",49
22/03/2019 15:10:30,b002,"46,8",72
23/03/2019 15:10:30,b002,"14,6",52
24/03/2019 15:10:30,b002,"6,5",31
25/03/2019 15:10:30,b002,"49,1",6
26/03/2019 15:10:30,b002,"25,2",61
27/03/2019 15:10:30,b002,1,1
28/03/2019 15:10:30,b002,"41,4",52
29/03/2019 15:10:30,b002,"17,7",23
30/03/2019 15:10:30,b002,"44,7",56